%YAML 1.1
%TAG !u! tag:unity3d.com,2011:
--- !u!114 &11400000
MonoBehaviour:
  m_ObjectHideFlags: 0
  m_PrefabParentObject: {fileID: 0}
  m_PrefabInternal: {fileID: 0}
  m_GameObject: {fileID: 0}
  m_Enabled: 1
  m_EditorHideFlags: 0
  m_Script: {fileID: 11500000, guid: 31ab55ded67f66140977a544d93962ab, type: 3}
  m_Name: __actions_platformer_in_Move
  m_EditorClassIdentifier: 
  changeTolerance: 0.000001
  fullPath: /actions/platformer/in/Move
  actionSet: {fileID: 11400000, guid: 4ae49a1cabc4ca248b43b8c9e479938b, type: 2}
  direction: 0
