%YAML 1.1
%TAG !u! tag:unity3d.com,2011:
--- !u!114 &11400000
MonoBehaviour:
  m_ObjectHideFlags: 0
  m_PrefabParentObject: {fileID: 0}
  m_PrefabInternal: {fileID: 0}
  m_GameObject: {fileID: 0}
  m_Enabled: 1
  m_EditorHideFlags: 0
  m_Script: {fileID: 11500000, guid: c9406e4f47afb1a4b8fd7d7c8f9aaa14, type: 3}
  m_Name: __actions_default
  m_EditorClassIdentifier: 
  allActions:
  - {fileID: 11400000, guid: 5a9e9f27e65175740824fd5201ee526a, type: 2}
  - {fileID: 11400000, guid: 82c188ce397e2e04c88595cca9f82be7, type: 2}
  - {fileID: 11400000, guid: 410b2771e9058664b977b3f84c6002fe, type: 2}
  - {fileID: 11400000, guid: 0f4f503edbe7c9247989cca7fedc5fb9, type: 2}
  - {fileID: 11400000, guid: 138a7cd6509b2e04e8db7ac79f65e80d, type: 2}
  - {fileID: 11400000, guid: c4e28717e9b3fcc47a6cf09e9f64d3c7, type: 2}
  - {fileID: 11400000, guid: a11dc5b4d6aca194f8484af675921afd, type: 2}
  - {fileID: 11400000, guid: efe579481143a0d4eafe1f62f2fa5dea, type: 2}
  - {fileID: 11400000, guid: bffd52f08545ecf46ab3eb20a37e6b00, type: 2}
  - {fileID: 11400000, guid: 2f0450bacf440e04194fc09db65c78be, type: 2}
  nonVisualInActions:
  - {fileID: 11400000, guid: 5a9e9f27e65175740824fd5201ee526a, type: 2}
  - {fileID: 11400000, guid: 82c188ce397e2e04c88595cca9f82be7, type: 2}
  - {fileID: 11400000, guid: 410b2771e9058664b977b3f84c6002fe, type: 2}
  - {fileID: 11400000, guid: 0f4f503edbe7c9247989cca7fedc5fb9, type: 2}
  - {fileID: 11400000, guid: efe579481143a0d4eafe1f62f2fa5dea, type: 2}
  - {fileID: 11400000, guid: bffd52f08545ecf46ab3eb20a37e6b00, type: 2}
  visualActions:
  - {fileID: 11400000, guid: 138a7cd6509b2e04e8db7ac79f65e80d, type: 2}
  - {fileID: 11400000, guid: c4e28717e9b3fcc47a6cf09e9f64d3c7, type: 2}
  - {fileID: 11400000, guid: a11dc5b4d6aca194f8484af675921afd, type: 2}
  poseActions:
  - {fileID: 11400000, guid: 138a7cd6509b2e04e8db7ac79f65e80d, type: 2}
  - {fileID: 11400000, guid: c4e28717e9b3fcc47a6cf09e9f64d3c7, type: 2}
  - {fileID: 11400000, guid: a11dc5b4d6aca194f8484af675921afd, type: 2}
  skeletonActions:
  - {fileID: 11400000, guid: c4e28717e9b3fcc47a6cf09e9f64d3c7, type: 2}
  - {fileID: 11400000, guid: a11dc5b4d6aca194f8484af675921afd, type: 2}
  outActionArray:
  - {fileID: 11400000, guid: 2f0450bacf440e04194fc09db65c78be, type: 2}
  fullPath: /actions/default
  usage: single
  inActions: {fileID: 11400000, guid: 466cbd72773c1f54c8b8918abdbfca39, type: 2}
  outActions: {fileID: 11400000, guid: 6e3b628beaa91df4fbc6dec46d7a35ab, type: 2}
