%YAML 1.1
%TAG !u! tag:unity3d.com,2011:
--- !u!114 &11400000
MonoBehaviour:
  m_ObjectHideFlags: 0
  m_CorrespondingSourceObject: {fileID: 0}
  m_PrefabInternal: {fileID: 0}
  m_GameObject: {fileID: 0}
  m_Enabled: 1
  m_EditorHideFlags: 0
  m_Script: {fileID: 11500000, guid: db335228b65bc8b4aabef00743c66d93, type: 3}
  m_Name: Joppe
  m_EditorClassIdentifier: 
  voornaam: Joppe
  achternaam: 'Demulder '
  geboortedatum: 7-5-1997
  gewicht: 68
  geslacht: Man
  specialeOpmerking: Wijsvinger linker hand gebroken, vanwege te hard op de 'Enter'
    toets te drukken.
