%YAML 1.1
%TAG !u! tag:unity3d.com,2011:
--- !u!21 &2100000
Material:
  serializedVersion: 6
  m_ObjectHideFlags: 0
  m_CorrespondingSourceObject: {fileID: 0}
  m_PrefabInternal: {fileID: 0}
  m_Name: Blood Puddle
  m_Shader: {fileID: 210, guid: 0000000000000000f000000000000000, type: 0}
  m_ShaderKeywords: _ALPHATEST_ON _EMISSION _NORMALMAP
  m_LightmapFlags: 0
  m_EnableInstancingVariants: 0
  m_DoubleSidedGI: 0
  m_CustomRenderQueue: 2450
  stringTagMap:
    RenderType: TransparentCutout
  disabledShaderPasses:
  - ALWAYS
  m_SavedProperties:
    serializedVersion: 3
    m_TexEnvs:
    - _BumpMap:
        m_Texture: {fileID: 2800000, guid: 969a5ea5264ae2e4cb261f0dfbdb7877, type: 3}
        m_Scale: {x: 1, y: 1}
        m_Offset: {x: 0, y: 0}
    - _DetailAlbedoMap:
        m_Texture: {fileID: 0}
        m_Scale: {x: 1, y: 1}
        m_Offset: {x: 0, y: 0}
    - _DetailMask:
        m_Texture: {fileID: 0}
        m_Scale: {x: 1, y: 1}
        m_Offset: {x: 0, y: 0}
    - _DetailNormalMap:
        m_Texture: {fileID: 0}
        m_Scale: {x: 1, y: 1}
        m_Offset: {x: 0, y: 0}
    - _EmissionMap:
        m_Texture: {fileID: 0}
        m_Scale: {x: 1, y: 1}
        m_Offset: {x: 0, y: 0}
    - _MainTex:
        m_Texture: {fileID: 2800000, guid: b4e688a60e266c340b1f84c510a4c102, type: 3}
        m_Scale: {x: 1, y: 1}
        m_Offset: {x: 0, y: 0}
    - _MetallicGlossMap:
        m_Texture: {fileID: 0}
        m_Scale: {x: 1, y: 1}
        m_Offset: {x: 0, y: 0}
    - _OcclusionMap:
        m_Texture: {fileID: 0}
        m_Scale: {x: 1, y: 1}
        m_Offset: {x: 0, y: 0}
    - _ParallaxMap:
        m_Texture: {fileID: 0}
        m_Scale: {x: 1, y: 1}
        m_Offset: {x: 0, y: 0}
    m_Floats:
    - _BlendOp: 0
    - _BumpScale: 1
    - _CameraFadingEnabled: 0
    - _CameraFarFadeDistance: 2
    - _CameraNearFadeDistance: 1
    - _ColorMode: 0
    - _Cull: 2
    - _Cutoff: 0.5
    - _DetailNormalMapScale: 1
    - _DistortionBlend: 0.5
    - _DistortionEnabled: 0
    - _DistortionStrength: 1
    - _DistortionStrengthScaled: 0
    - _DstBlend: 0
    - _EmissionEnabled: 1
    - _FlipbookMode: 0
    - _GlossMapScale: 1
    - _Glossiness: 0.5
    - _GlossyReflections: 1
    - _InvFade: 3
    - _LightingEnabled: 1
    - _Metallic: 0
    - _Mode: 1
    - _OcclusionStrength: 1
    - _Parallax: 0.02
    - _SmoothnessTextureChannel: 0
    - _SoftParticlesEnabled: 0
    - _SoftParticlesFarFadeDistance: 1
    - _SoftParticlesNearFadeDistance: 0
    - _SpecularHighlights: 1
    - _SrcBlend: 1
    - _UVSec: 0
    - _ZWrite: 1
    m_Colors:
    - _CameraFadeParams: {r: 0, g: Infinity, b: 0, a: 0}
    - _Color: {r: 0.4811321, g: 0.13843888, b: 0.13843888, a: 1}
    - _ColorAddSubDiff: {r: 0, g: 0, b: 0, a: 0}
    - _EmisColor: {r: 0.509434, g: 0.0024029962, b: 0.0024029962, a: 0}
    - _EmissionColor: {r: 0.4056604, g: 0, b: 0, a: 1}
    - _SoftParticleFadeParams: {r: 0, g: 0, b: 0, a: 0}
    - _TintColor: {r: 0.5188679, g: 0, b: 0, a: 0.5}
